yearbeginning,AME,Claimants,CPI_yony,DEL,Employment,Gdepr,GDPdef_yonypc,GGGD_pc,gilts,NGDP,Profits_yony,PS_receipts,PS_receipts_pc,PSCB_pc,PSCBexfin_pc,PSCE,PSGD,PSGD_pc,PSGI,PSNBexfin,PSNBexfin_pc,PSNBexfin_pc_cyc,PSNBexfin_pc_struct,PSND,PSNDexfin_pc,PSND_pc,PSNI,RPI_yony,Tax_GDP_adj,Tax_GDP_unadj,TME,Treaty deficit,Wages_yony,Ygap_AS2012,PBR2008_policy,AllTaxPolicy
01/04/1972,,,,,,2.6,8.29,,,67.453,,26.337,39.04496464,,,22.4,,,5.9,1.9,1.281607,,,,,,3.3,7.6,,,28.3,,,2.6,0,-1.886035803
01/04/1973,,,,,,3.1,6.95,,,75.309,,29.735,39.48399262,,,26.4,,,7,3.7,2.786433,,,,,,3.9,8.2,100,100,33.4,,,7,0,-2.574186943
01/04/1974,,,,,,3.9,19.43,,,89.904,,37.868,42.12048407,-0.91,-0.91,34.8,59.4,66,9,5.9,6.53,,,52.1,52,52,5.1,13.5,106.9,109.9,43.7,,,2.9,0,-2.549756243
01/04/1975,,,,,,4.9,25.41,,,112.102,,47.901,42.72983533,-1.43,-1.43,44.6,71.1,63.4,11.1,7.8,6.98,,,64.7,53.8,53.8,6.2,21.2,104.6,111.9,55.7,,,-1.9,0,-1.752179162
01/04/1976,,,,,,5.8,13.69,,,130.998,,56.44,43.08462725,-1.05,-1.05,52,84.1,64.2,11.6,7.1786904,5.48,0.552907531,4.9,73.6,52.3,52.3,5.8,21.2,106.5,112.3,63.6,,,-0.4,0,-2.654936098
01/04/1977,,,,,,6.6,13.64,,,152.484,,62.982,41.30400567,-1.29,-1.29,58.3,95.8,62.9,11.1,6.48057,4.25,0.336862368,3.9,79.5,49.1,49.1,4.5,16.7,98.9,104.2,69.5,,,-0.6,0,-2.934432852
01/04/1978,,,,,,7.5,10.91,,,174.331,,69.841,40.06229529,-2.51,-2.51,66.7,104.4,59.9,11.9,8.7339831,5.01,-0.370018975,5.4,88.6,47.2,47.2,4.4,9.1,99,99.9,78.6,,,1.1,0,-5.491376899
01/04/1979,,,,,,8.9,16.67,,,209.653,,85.024,40.55463075,-1.81,-1.81,79.9,113.9,54.3,13.7,8.5538424,4.08,-0.115163148,4.2,98.2,44,44,4.8,9.8,101.2,100.2,93.6,,,-0.2,0,-7.860504455
01/04/1980,,,,,,10.7,18.27,,,239.195,,100.948,42.20322331,-2.94,-2.94,97.2,128,53.5,15.2,11.529199,4.82,1.471442401,3.3,113.8,46.1,46.1,4.5,19.8,103.4,104.9,112.5,,,-3,0,-7.477032491
01/04/1981,,,,,,11.7,9.57,,,263.139,,119.583,45.44480294,-1.27,-1.27,111.3,136.3,51.8,14.3,5.9995692,2.28,1.974077767,0.3,125.2,46.1,46.1,2.6,12.6,104.2,109.2,125.6,,,-2.8,0,-5.760023987
01/04/1982,,,,,,12.1,6.79,,,287.681,,129.785,45.11420636,-1.42,-1.42,121.7,146.4,50.9,16.6,8.5441257,2.97,1.749011858,1.2,132.5,44.8,44.8,4.5,10.4,110,111.4,138.3,,,-2.4,0,-9.763677045
01/04/1983,,,,,,12.6,4.4,,,313.225,,137.965,44.04661186,-1.92,-1.92,131.4,156.9,50.1,18.3,11.7459375,3.75,1.219512195,2.5,143.6,45.1,45.1,5.7,4.6,115.5,113.9,149.7,,,-1.5,0,-13.79781194
01/04/1984,,,,,,12.7,5.02,,,336.754,,147.708,43.86228523,-2.08,-2.07,142,168.5,50.1,18,12.291521,3.65,0.533462658,3.1,157,45.1,45.1,5.3,5.2,118.7,116.7,160,,,-0.5,0,-15.45402143
01/04/1985,,,,,,12.3,5.32,,,369.914,,157.877,42.67937953,-1.2,-1.19,150,183.3,49.6,16.6,8.7669618,2.37,0.068426197,2.3,162.5,43.2,43.2,4.3,6.1,119.4,115.1,166.6,,,0.1,0,-19.45184838
01/04/1986,,,,,,12.7,2.9,,,396.262,,164.684,41.55937233,-1.36,-1.35,157.3,192.7,48.6,15.4,8.0837448,2.04,-0.254154448,2.3,167.8,40.9,40.9,2.7,4.2,119.9,114.2,172.8,,,0.4,0,-22.32042303
01/04/1987,,,,,,12.7,5.35,,,441.979,,178.895,40.47590496,-0.42,-0.41,168,201.2,45.7,15.3,4.41979,1,-0.980392157,2,167.4,36.6,36.6,2.6,4,122.3,113.7,183.3,,,1.9,0,-28.66887126
01/04/1988,,,,,,13.6,6.51,,,492.18,,197.071,40.04043236,1.62,1.64,175.4,195.4,39.9,15.3,-6.299904,-1.28,-1.868787276,0.6,153.7,30.4,30.4,1.7,3.5,123.1,111.6,190.7,,,3,0,-36.06619936
01/04/1989,,,,,,14.3,6.74,,,539.946,,211.261,39.12632004,1.41,1.42,189.3,186.4,34.7,20.9,-1.0258974,-0.19,-1.178217822,1,151.9,27.5,27.5,6.6,7.9,122.4,109.1,210.2,,,1.2,0,-41.93888366
01/04/1990,,,,,,14.1,7.14,,,580.769,,221.69,38.17180325,0.33,0.34,205.6,189.7,32.9,21.9,5.8657669,1.01,0.208333333,0.8,151.1,26,26,7.8,8.1,121.9,108.9,227.5,,,-0.9,0,-44.54477813
01/04/1991,,,,,,12.6,6.51,,,612.376,,231.654,37.82871961,-1.94,-1.93,230.8,208.6,34.4,23.4,22.657912,3.7,1.26953125,2.4,165.8,27.2,27.2,10.8,8.2,118.8,106.3,254.2,,,-2.1,0,-45.37241427
01/04/1992,,,,,,12.7,2.17,,,633.109,,227.559,35.94309985,-5.55,-5.54,249.9,257.1,41,24.3,46.7234442,7.38,1.493383743,5.8,201.9,31.4,31.4,11.6,4,115.9,102.8,274.2,,,-2.2,0,-47.43635856
01/04/1993,,,,,,13,2.16,,,671.839,,235.228,35.01255509,-6.2,-6.19,263.9,304.4,45.8,22.4,51.059764,7.6,1.222953904,6.3,249.8,36.5,36.5,9.4,1.9,113.9,100.7,286.3,,,-1.6,0,-49.85498523
01/04/1994,,,,,,13.1,1.44,,,711.063,,255.901,35.98851297,-4.71,-4.71,276.3,343.8,48.9,22.9,43.2326304,6.08,0.454545455,5.6,290,40.1,40.1,9.8,2.3,114.1,105,299.2,,,-0.3,0,-44.87771972
01/04/1995,,,,,,13.1,2.74,,,752.384,,276.613,36.76487007,-3.27,-3.27,288.1,381.5,51.3,23.2,34.7601408,4.62,0.596153846,4,322.1,41.9,41.9,10.1,3.5,113.8,107.2,311.4,,,-1.1,0,-42.2763854
01/04/1996,,,,,,12.4,3.07,,,800.303,,288.73,36.07758561,-2.72,-2.71,298,404.4,51,17.8,27.1302717,3.39,0.184108527,3.2,347.2,42.1,42.1,5.4,2.7,115.1,107.4,315.8,,,0.1,0,-47.97937694
01/04/1997,,,1.7,,,12.2,2.01,,,848.394,,316.247,37.27595905,-0.11,-0.12,305,404.4,48,17,5.7690792,0.68,-1.002949853,1.7,352,40.4,40.4,4.8,2.6,116.8,110.8,322,,,1.9,0,-47.33511308
01/04/1998,,,1.7,,,12.1,2.07,,,893.234,,335.32,37.53999512,1.17,1.17,312.8,403.2,45.3,18.1,-4.46617,-0.5,-1.191658391,0.7,350.7,38.2,38.2,6,3.5,117.6,113,330.9,-2.5,,1.5,0,-46.99919667
01/04/1999,,,1.7,,,12.4,1.79,,,944.562,,358.474,37.95134676,2.22,2.22,325.1,395.8,41.9,17.8,-15.585273,-1.65,-1.155778894,-0.5,344.4,35.7,35.7,5.4,2.1,118.4,113.7,342.9,-11.7,,1.6,0,-50.1900692
01/04/2000,,,0.6,,,12.6,0.54,,,986.858,,381.528,38.6608813,2.29,2.29,346.3,384.5,38.9,-4.8,-39.967749,-4.05,-1.387461459,-2.7,311.1,30.8,30.8,-17.4,2.6,120.9,116.6,341.452868,-36.7,,2.1,0,-52.47133034
01/04/2001,,,0.9,,,13.1,1.91,,,1029.35,,388.391,37.73167533,1.08,1.08,364.2,382.1,37,25,0.82348,0.08,-0.516898608,0.6,314.3,29.8,29.8,11.9,2.3,120.3,114,389.0943,3.5,,0.3,0,-60.17514763
01/04/2002,,,1.5,,,14,2.5,,,1085.938,,394.956,36.37003217,-1.12,-1.12,393.4,401.3,36.7,27.8,25.9539182,2.39,0.18590998,2.2,346,30.9,30.9,13.8,1.3,115.8,108.7,421.343944,28.1,,-0.6,0,-64.46006205
01/04/2003,,,1.5,,,14.6,2.21,,,1154.402,,421.856,36.54324923,-1.53,-1.53,425.3,450.1,38.9,30.2,33.3622178,2.89,-0.203685742,3.1,381.5,32.2,32.2,15.6,3.1,112.5,108.7,455.98879,38.3,,0.6,0,-56.26132549
01/04/2004,,,1.1,,,15.2,2.95,40.1,,1214.413,,451.332,37.16462192,-1.69,-1.69,456.6,487.6,40.1,35.8,41.1686007,3.39,-0.586538462,4,422.1,33.9,33.9,20.6,2.6,115.4,111.7,491.837265,43.4,,0.9,0,-60.22988131
01/04/2005,,,1.9,,,16.1,2.29,42.1,,1284.547,,485.8,37.81877969,-1.13,-1.13,484.5,535.3,42.1,39.6,37.8941365,2.95,-0.531400966,3.5,461.7,35.1,35.1,23.5,3.2,116.9,114.2,524.095176,39.7,,0.6,0,-60.23281348
01/04/2006,,,1.8,,,17,2.69,42.9,,1350.438,,517.082,38.28994741,-0.54,-0.54,507.2,577.8,42.9,42.8,33.085731,2.45,-0.340466926,2.8,497.8,35.8,35.8,25.8,2.4,116.2,115.1,549.628266,35.8,,0.5,0,-57.80105057
01/04/2007,238.011,,3.1,344.926,,17.7,2.49,43.6,,1432.887,,546.97,38.17258444,-0.52,-0.53,536.2,620.1,43.6,46.8,36.6819072,2.56,-1.099324976,3.7,527.2,36.4,43,29.1,4.8,116.6,115.7,583.185009,40.5,,2,0,-60.38407523
01/04/2008,267.959,,2.5,361.786,,18.6,2.73,56.4,,1422.29,,533.271,37.49383037,-2.64,-3.61,564.7,799.9,56.4,65,97.569094,6.86,0.338028169,6.5,624,44.5,150.4,46.4,3.8,115.6,113.3,630.07447,100.1,,-1.6,-6.55,-64.97698834
01/04/2009,280.019,,2.9,390.131,,19.3,1.5,70.8,,1415.654,,512.256,36.18511303,-6.14,-7.81,602.3,1001.7,71.2,67.8,158.9779442,11.23,2.139577594,8.9,770,53.1,153.5,48.5,-0.4,109.9,106.2,669.604342,163,,-4,-12.19,-67.0700673
01/04/2010,293.975,,3.4,395.659,,20.3,2.87,76.3,,1479.733,,548.894,37.09412441,-5.24,-7.02,631.4,1129.3,76.4,58.3,141.7584214,9.58,2.029795158,7.4,909.8,60.4,149.3,38,4.4,110.8,110.9,689.555578,141.7,,-2.8,-3.31,-55.52609581
01/04/2011,328.70576,1.57,4,362.340768,29.2,21.1,2.34,83.3,2.2,1528.864,7.7,569.946,37.27905164,-4.31,-6.14,643.1,1272.2,83.3,47.8,121.8504608,7.97,1.858490566,6,1025.4,66.8,141.2,26.7,5.3,,,691.046528,117.5,2.4,-2.7,2.855,-38.56976098
01/04/2012,344.08,1.6,3.5,330.004,29.6,22.2,2.5,90.3,1.7,1564,2,594.32,38,-3.6,,660.7,1412.292,90.3,13.7,79.764,5.1,2.038834951,3,1186,74.7,,-8.5,3.6,,,674.084,,3.7,-3.2,2.958238001,-39.80652748
01/04/2013,359.64,1.68,2.5,359.64,29.6,23.1,2,93.5,2.3,1620,5.1,620.46,38.3,-2.2,,671.9,1514.7,93.5,48,98.82,6.1,2.215799615,3.8,1270,76.8,,24.9,3.1,,,719.28,,2.5,-3.5,3.100894149,-42.26015444
01/04/2014,373.269,1.68,2.2,358.068,29.8,23.9,2,96.3,2.6,1689,7.9,643.509,38.1,-1.4,,681.5,1626.507,96.3,49.5,87.828,5.2,2.235179786,2.9,1362,79,,25.6,2.7,,,731.337,,3.5,-3.3,3.266074951,-44.26356461
01/04/2015,387.86,1.61,2,357.889,30,24.7,2,97.4,2.9,1763,7.8,671.703,38.1,-0.8,,697.4,1717.162,97.4,47.3,74.046,4.2,2.156862745,2,1442,79.9,,22.6,3.1,,,743.986,,4.6,-2.9,3.451903353,-46.54209501
01/04/2016,402.864,1.5,2,352.968,30.2,25.5,2,96.6,3.1,1848,8.8,705.936,38.2,0.4,,706.9,1785.168,96.6,48.3,48.048,2.6,1.684836472,0.9,1498,79.2,,22.7,3.4,,,755.832,,4.8,-2.4,3.643362919,-48.6094298
01/04/2017,418.824,1.4,2,347.081,30.5,26.4,2,94.4,3.4,1939,7.5,734.881,37.9,0.9,,716.2,1830.416,94.4,49.2,31.024,1.6,1.296111665,0.3,1534,77.3,,22.9,3.7,,,765.905,,4.9,-1.7,3.84374788,
