,DfE,NHS,PSS,Transport,DCLGcommunities,DCLGlocalgovt,BIS,Home,Justice,LOD,Defence,FCO,IntlDev,DECC,DEFRA,DCMS,DWP,Scotland,Wales,NthIreland,Chancellor,Cabinet,Independent,Reserve,SpecReserve,GreenBank,AdjBudgExchange,OtherAME
2007,60838,99707,1767,13513,11775,23624,21335,9905,9210,723,39028,1987,5175,9013,2896,6584,135420,28787,13520,16126,36018,9593,753,0,0,0,0,25639
2008,63010,107401,1275,13259,12380,25433,21988,10628,10047,732,40506,2163,5830,4080,2774,6722,143323,29559,14353,17132,167673,9371,797,0,0,0,0,-80690
2009,67454,116026,1393,15049,13717,26059,25744,11017,10047,726,44635,2309,6918,3419,2882,6842,155506,30915,15505,18273,55965,57622,880,0,0,0,0,28944
2010,48067,90529,1522,12975,10839,26996,22327,10496,9419,653,36477,2281,7771,8301,2308,6789,160522,31719,15399,14408,30066,-4982,851,0,0,0,0,143902
2011,68090,123897,0,13241,5369,27364,21432,10173,8994,614,45071,2254,7917,6242,2329,7809,166904,30803,14941,18623,24354,11211,925,0,0,0,0,76329
2012,68155,126864,0,14472,5295,24318,25403,10278,8291,641,45840,2181,8380,3744,2443,10164,173819,30874,15016,18591,46819,10757,841,2800,600,-228,-640,27665
2013,68274,128541,0,14287,4094,24238,25037,9637,7940,605,42722,1612,11178,3903,2264,6610,175139,31154,14939,19128,46615,-553,831,3000,3000,1000,0,74797
2014,69888,132563,0,14229,3365,22633,25904,9477,7599,563,42241,1333,11091,4104,2123,6295,177693,31576,15179,19145,47033,-288,844,3000,2100,0,0,83775
